Can A Balanced Endorsement of Self-Enhancement and Self-Transcendence Values Be Measured? An Investigation Using European Social Survey Data
…
-7.001

0.000

 Standard errors: Robust

##########################################
# (Step 13)  Extra Analysis: Country Level
##########################################

# calculating the mean of self-enhancement scores across countries
Qsen <- E %>% group_by(cntry) %>% summarise(meanSEN = mean(SEN,na.rm=T))
Qsen

## # A tibble: 24 x 2
##    cntry meanSEN
##    <chr>   <dbl>
##  1 AT       3.82
##  2 BE       3.52
##  3 BG       3.90
##  4 CH       3.56
##  5 CY       3.82
##  6 CZ       3.65
##  7 DE       3.42
##  8 DK       3.41
##  9 EE       3.23
## 10 ES       3.33
## # ... with 14 more rows

# calculating the mean of self-transcendence scores across countries
Qstr <- E %>% group_by(cntry) %>% summarise(meanSTR = mean(STR,na.rm=T))
Qstr

## # A tibble: 24 x 2
##    cntry meanSTR
##    <chr>   <dbl>
##  1 AT       4.95
##  2 BE       4.98
##  3 BG       4.83
##  4 CH       5.10
##  5 CY       5.15
##  6 CZ       4.52
##  7 DE       5.00
##  8 DK       4.99
##  9 EE       4.73
## 10 ES       5.16
## # ... with 14 more rows

# calculating the mean of ST-SE-VB (original) scores across countries
Qdbs <- E %>% group_by(cntry) %>% summarise(meanDBS9 = mean(DBS9,na.rm=T))
Qdbs

## # A tibble: 24 x 2
##    cntry meanDBS9
##    <chr>    <dbl>
##  1 AT       0.766
##  2 BE       0.736
##  3 BG       0.788
##  4 CH       0.715
##  5 CY       0.743
##  6 CZ       0.787
##  7 DE       0.707
##  8 DK       0.710
##  9 EE       0.717
## 10 ES       0.665
## # ... with 14 more rows

# calculating the mean of ST dim across countries
Qsds <- E %>% group_by(cntry) %>% summarise(meanSDSo = mean(SDSo,na.rm=T))
Qsds

## # A tibble: 24 x 2
##    cntry meanSDSo
##    <chr>    <dbl>
##  1 AT       1.12 
##  2 BE       1.46 
##  3 BG       0.930
##  4 CH       1.55 
##  5 CY       1.33 
##  6 CZ       0.874
##  7 DE       1.59 
##  8 DK       1.58 
##  9 EE       1.50 
## 10 ES       1.82 
## # ... with 14 more rows
